Programming with dplyr
…
expr(cement(it, is, !! x))
#> cement(it, is, "shiny")

This technique is essential to work your way around to mastering tidy eval.

Creating symbols

Now that we are armed with quasiquotation, let’s try to program with the dplyr verb mutate(). We’ll take a BMI computation as running example.

# Rescale height
starwars <- mutate(starwars, height = height / 100)

transmute(starwars, bmi = mass / height^2)
#> # A tibble: 87 x 1
#>        bmi
#>      <dbl>
#> 1 26.02758
#> 2 26.89232
#> 3 34.72222
#> 4 33.33007
#> # ... with 83 more rows
…
x <- "height"
sym(x)
#> height

Let’s build a symbol and try to unquote it in the transmute expression. Using expr() to examine the effect of unquoting, things are looking good:

x <- sym("height")

expr(transmute(starwars, bmi = mass / (!! x)^2))
#> transmute(starwars, bmi = mass/(height)^2)

And indeed it now works!

transmute(starwars, bmi = mass / (!! x)^2)
#> # A tibble: 87 x 1
#>        bmi
#>      <dbl>
#> 1 26.02758
#> 2 26.89232
#> 3 34.72222
#> 4 33.33007
#> # ... with 83 more rows

Creating a wrapper around a dplyr pipeline

Quasiquotation is all we need to write our first wrapper function around a dplyr pipeline. The goal is to write reliable functions that reduce duplication in our data analysis code. Let’s say that we often take a grouped average using dplyr and our scripts are littered with little pipelines that look like this:

starwars %>%
  group_by(species) %>%
  summarise(avg = mean(height))
#> # A tibble: 38 x 2
#>    species   avg
#>      <chr> <dbl>
#> 1   Aleena  0.79
#> 2 Besalisk  1.98
#> 3   Cerean  1.98
#> 4 Chagrian  1.96
#> # ... with 34 more rows
…
In the worst case they will be misused. For instance summarise() would try to take the average of the string "height".

To avoid this, our wrapper simply needs to construct symbols from its inputs and unquote them in the pipeline:

mean_by <- function(data, var, group) {
  var <- sym(var)
  group <- sym(group)

  data %>%
    group_by(!! group) %>%
    summarise(avg = mean(!! var))
}

mean_by(starwars, "height", "species")
#> # A tibble: 38 x 2
#>    species   avg
#>      <chr> <dbl>
#> 1   Aleena  0.79
#> 2 Besalisk  1.98
#> 3   Cerean  1.98
#> 4 Chagrian  1.96
#> # ... with 34 more rows

mean_by(starwars, "mass", "eye_color")
#> # A tibble: 15 x 2
#>   eye_color   avg
#>       <chr> <dbl>
#> 1     black    NA
#> 2      blue    NA
#> 3 blue-gray    77
#> 4     brown    NA
#> # ... with 11 more rows
…
mean_by <- function(data, var, group) {
  var <- enquo(var)
  group <- enquo(group)

  data %>%
    group_by(!! group) %>%
    summarise(avg = mean(!! var))
}

The wrapper now automatically quotes its arguments. This has several implications:

First the user no longer has to supply quoted strings:

mean_by(starwars, height, species)
#> # A tibble: 38 x 2
#>    species   avg
#>      <chr> <dbl>
#> 1   Aleena  0.79
#> 2 Besalisk  1.98
#> 3   Cerean  1.98
#> 4 Chagrian  1.96
#> # ... with 34 more rows

Secondly, while sym() assumed that the supplied arguments were symbols, enquo() captures arbitrary expressions. This is a good fit for our wrapper because both group_by() and summarise() accept complex expressions:

mean_by(starwars, height * 100, as.factor(species))
#> # A tibble: 38 x 2
#>   `as.factor(species)`   avg
#>                 <fctr> <dbl>
#> 1               Aleena    79
#> 2             Besalisk   198
#> 3               Cerean   198
#> 4             Chagrian   196
#> # ... with 34 more rows

Since our function now quotes its arguments, it is no longer programmable in the usual way. If another function passes variables to mean_by(), it needs to use quasiquotation itself. A typical composition of quoting functions thus looks like a chain of quoted and unquoted arguments:

mean_by_species <- function(data, var) {
  var <- enquo(var)
  mean_by(data, !! var, species)
}

mean_by_species(starwars, height)
#> # A tibble: 38 x 2
#>    species   avg
#>      <chr> <dbl>
#> 1   Aleena  0.79
#> 2 Besalisk  1.98
#> 3   Cerean  1.98
#> 4 Chagrian  1.96
#> # ... with 34 more rows
…
Passing on arguments through dots to quoting functions is very easy. Unlike named arguments which need to be repeatedly quoted and unquoted, the ... object can just be passed along:

mean_by <- function(data, var, ...) {
  var <- enquo(var)

  data %>%
    group_by(...) %>%
    summarise(avg = mean(!! var))
}

Your users can now create grouped averages for any combination of groups!

mean_by(starwars, height, species, eye_color)
#> # A tibble: 51 x 3
#> # Groups:   species [?]
#>    species eye_color   avg
#>      <chr>     <chr> <dbl>
#> 1   Aleena   unknown  0.79
#> 2 Besalisk    yellow  1.98
#> 3   Cerean    yellow  1.98
#> 4 Chagrian      blue  1.96
#> # ... with 47 more rows

You can learn about more advanced ways of dealing with multiple arguments with exprs(), quos() and syms() in the section on variadic quasiquotation below.

Labelling inputs

dplyr functions try their best to provide useful column names for new columns. This is an area where our wrapper could use some improvement:

names(mean_by(starwars, height, as.factor(species)))
#> [1] "as.factor(species)" "avg"

First note that the issue is in fact already solved for the grouping variables. That’s a benefit from taking arguments with ..., they accept optional names:

mean_by(starwars, height, species_fct = as.factor(species))
#> # A tibble: 38 x 2
#>   species_fct   avg
#>        <fctr> <dbl>
#> 1      Aleena  0.79
#> 2    Besalisk  1.98
#> 3      Cerean  1.98
#> 4    Chagrian  1.96
#> # ... with 34 more rows
…
mean_by <- function(data, var, ...) {
  var <- enquo(var)

  name <- quo_name(var)
  name <- paste0("avg_", name)

  data %>%
    group_by(...) %>%
    summarise(!! name := mean(!! var))
}

We get a good name that reflects the user input, even when the argument is a complex expression:

mean_by(starwars, height, species)
#> # A tibble: 38 x 2
#>    species avg_height
#>      <chr>      <dbl>
#> 1   Aleena       0.79
#> 2 Besalisk       1.98
#> 3   Cerean       1.98
#> 4 Chagrian       1.96
#> # ... with 34 more rows

mean_by(starwars, identity(height), species)
#> # A tibble: 38 x 2
#>    species `avg_identity(height)`
#>      <chr>                  <dbl>
#> 1   Aleena                   0.79
#> 2 Besalisk                   1.98
#> 3   Cerean                   1.98
#> 4 Chagrian                   1.96
#> # ... with 34 more rows
…
expr(call(!!! 1:5))
#> call(1L, 2L, 3L, 4L, 5L)

This is exactly what we need to forward a list of captured arguments to group_by()!

prefixed_group_by <- function(data, prefix, ...) {
  groups <- quos(..., .named = TRUE)
  names(groups) <- paste0(prefix, names(groups))

  group_by(data, !!! groups)
}

prefixed_group_by(starwars, "grp_", as.factor(species), color = eye_color)
#> # A tibble: 87 x 15
#> # Groups:   grp_as.factor(species), grp_color [51]
#>             name height  mass hair_color  skin_color eye_color birth_year
#>            <chr>  <dbl> <dbl>      <chr>       <chr>     <chr>      <dbl>
#> 1 Luke Skywalker   1.72    77      blond        fair      blue       19.0
#> 2          C-3PO   1.67    75       <NA>        gold    yellow      112.0
#> 3          R2-D2   0.96    32       <NA> white, blue       red       33.0
#> 4    Darth Vader   2.02   136       none       white    yellow       41.9
#> # ... with 83 more rows, and 8 more variables: gender <chr>,
#> #   homeworld <chr>, species <chr>, films <list>, vehicles <list>,
#> #   starships <list>, `grp_as.factor(species)` <fctr>, grp_color <chr>
Modifying mean_by() to automatically prefix the grouping factors is now child’s play:

mean_by <- function(data, var, ...) {
  var <- enquo(var)

  name <- quo_name(var)
  name <- paste0("avg_", name)

  data %>%
    prefixed_group_by("grp_", ...) %>%
    summarise(!! name := mean(!! var))
}

mean_by(starwars, height, species, eye = eye_color)
#> # A tibble: 51 x 3
#> # Groups:   grp_species [?]
#>   grp_species grp_eye avg_height
#>         <chr>   <chr>      <dbl>
#> 1      Aleena unknown       0.79
#> 2    Besalisk  yellow       1.98
#> 3      Cerean  yellow       1.98
#> 4    Chagrian    blue       1.96
#> # ... with 47 more rows
…
